# Time(sec),Ch1(degC),Ch2(degC),Ch3(degC)Ch4(degC)
0.00,5.00,10.00,15.00,20.00,25.00,30.00,35.00,40.00,45.00,50.00,55.00,60.00,65.00,70.00,75.00,80.00,85.00,90.00,95.00,100.00,105.00,110.00,115.00,120.00,125.00,130.00,135.00,140.00,145.00,150.00,155.00,160.00,165.00,170.00,175.00,180.00,185.00,190.00,195.00,200.00,205.00,210.00,215.00,220.00,225.00,230.00,235.00,240.00,245.00,250.00,255.00,260.00,265.00,270.00,275.00,280.00,285.00,290.00,295.00,300.00
31.94,31.94,31.94,31.94,31.94,31.94,31.94,31.94,31.94,31.94,31.94,31.94,31.94,31.94,31.94,31.94,31.94,80.19,80.19,32.00,16.00,31.94,31.94,31.94,31.94,31.94,31.94,31.94,31.94,31.94,31.94,31.94,31.94,31.94,31.94,31.94,31.94,31.94,31.94,31.94,31.94,31.94,31.94,31.94,31.94,31.94,31.94,31.94,31.94,31.94,31.94,31.94,31.94,31.94,31.94,31.94,31.94,31.94,31.94,31.94,31.94
31.94,31.94,31.94,31.94,31.94,31.94,15.88,15.88,0.00,0.00,0.00,15.88,15.88,0.00,0.00,0.00,15.88,15.88,15.88,15.88,15.88,15.88,15.88,15.88,15.88,15.88,15.88,15.88,15.88,15.88,15.88,15.88,15.88,15.88,0.00,0.00,0.00,0.00,0.00,0.00,0.00,0.00,0.00,0.00,0.00,0.00,0.00,0.00,0.00,0.00,0.00,0.00,0.00,0.00,0.00,0.00,0.00,0.00,0.00,0.00,0.00
31.94,31.94,32.06,31.94,80.25,80.25,80.25,80.25,80.25,80.25,80.19,80.19,80.19,80.19,80.19,80.19,80.19,80.19,80.19,80.19,80.19,80.19,80.19,80.19,80.19,80.19,80.19,80.19,80.19,80.19,80.19,80.19,80.19,80.19,80.19,80.19,80.19,80.19,80.19,80.19,80.19,80.19,80.19,64.19,64.19,64.19,64.19,64.19,64.19,64.19,64.19,64.19,64.19,64.19,64.19,64.19,64.19,64.19,64.19,64.19,64.19
31.94,31.94,31.94,32.06,32.06,32.06,32.06,32.06,32.06,32.06,32.06,32.06,32.06,32.06,32.06,32.06,32.06,32.06,32.06,32.06,32.06,32.06,32.06,32.06,32.06,32.06,32.06,32.06,32.06,32.06,32.06,32.06,32.06,32.06,32.06,32.06,32.06,32.06,32.06,32.06,32.06,32.06,32.06,32.06,32.06,32.06,32.06,32.06,32.06,32.06,32.06,32.06,32.06,32.06,32.06,32.06,32.06,32.06,32.06,32.06,32.06
